<svg width="34" height="33" viewBox="0 0 34 33" fill="none" xmlns="http://www.w3.org/2000/svg">
<path d="M20.5989 11.8894C20.2974 11.6091 20.2974 11.1546 20.5989 10.8743C20.9004 10.594 21.3892 10.594 21.6907 10.8743L27.0952 15.8987C27.3967 16.179 27.3967 16.6335 27.0952 16.9138L21.6907 21.9382C21.3892 22.2185 20.9004 22.2185 20.5989 21.9382C20.2974 21.6579 20.2974 21.2034 20.5989 20.9231L24.6853 17.124L7.65003 17.124C7.22363 17.124 6.87797 16.8027 6.87797 16.4063C6.87797 16.0098 7.22363 15.6885 7.65003 15.6885L24.6853 15.6885L20.5989 11.8894Z" fill="#7D80A5"/>
</svg>
