<svg width="42" height="40" viewBox="0 0 42 40" fill="none" xmlns="http://www.w3.org/2000/svg">
<path d="M22.1102 40H19.8898L14.6672 34.8771H6.94267L5.28518 33.3879V26.1802L0 21.0573V18.9427L5.28518 13.8198V6.58228L6.94267 5.09308H14.6672L19.8898 0H22.1102L27.4892 5.09308H35.0886L36.6523 6.55249V13.8198L42 18.9427V21.0573L36.5585 26.1802V33.3879L34.9948 34.8771H27.4892L22.1102 40ZM16.9501 27.3716H19.1705L30.9605 16.143L28.7401 14.0283L18.076 24.2144L13.7602 20.1042L11.5398 22.2189L16.9501 27.3716Z" fill="#323232"/>
<path d="M22.1102 40H19.8898L14.6672 34.8771H6.94267L5.28518 33.3879V26.1802L0 21.0573V18.9427L5.28518 13.8198V6.58228L6.94267 5.09308H14.6672L19.8898 0H22.1102L27.4892 5.09308H35.0886L36.6523 6.55249V13.8198L42 18.9427V21.0573L36.5585 26.1802V33.3879L34.9948 34.8771H27.4892L22.1102 40ZM16.9501 27.3716H19.1705L30.9605 16.143L28.7401 14.0283L18.076 24.2144L13.7602 20.1042L11.5398 22.2189L16.9501 27.3716Z" fill="white"/>
</svg>
