<svg width="16" height="16" viewBox="0 0 16 16"  xmlns="http://www.w3.org/2000/svg">
<g clip-path="url(#clip0_1_8314)">
<path d="M14.7145 2.64623C12.9744 0.906571 10.1436 0.906571 8.40393 2.64623L7.99986 3.05006L7.59603 2.64623C5.85637 0.906335 3.02531 0.906335 1.28565 2.64623C-0.418689 4.35057 -0.429756 7.05212 1.25998 8.93047C2.80114 10.643 7.34643 14.343 7.53928 14.4996C7.6702 14.606 7.82773 14.6578 7.98432 14.6578C7.9895 14.6578 7.99468 14.6578 7.99963 14.6576C8.16163 14.6651 8.32481 14.6096 8.45997 14.4996C8.65282 14.343 13.1986 10.643 14.7402 8.93024C16.4297 7.05212 16.4186 4.35057 14.7145 2.64623ZM13.69 7.98529C12.4884 9.32017 9.18546 12.0733 7.99963 13.0503C6.8138 12.0735 3.51155 9.32065 2.31018 7.98553C1.13142 6.67537 1.12035 4.8095 2.28452 3.64533C2.87908 3.051 3.6599 2.7536 4.44072 2.7536C5.22154 2.7536 6.00236 3.05077 6.59693 3.64533L7.48512 4.53353C7.59085 4.63925 7.72412 4.70236 7.86399 4.72449C8.09099 4.77324 8.33729 4.70989 8.51389 4.53376L9.40256 3.64533C10.5919 2.45644 12.5266 2.45667 13.7152 3.64533C14.8794 4.8095 14.8683 6.67537 13.69 7.98529Z" />
</g>
<defs>
<clipPath id="clip0_1_8314">
<rect width="16" height="16" />
</clipPath>
</defs>
</svg>
