<svg width="18" height="18" viewBox="0 0 18 18" fill="none" xmlns="http://www.w3.org/2000/svg">
<path d="M15 3H3C2.17157 3 1.5 3.67157 1.5 4.5V13.5C1.5 14.3284 2.17157 15 3 15H15C15.8284 15 16.5 14.3284 16.5 13.5V4.5C16.5 3.67157 15.8284 3 15 3Z" stroke="white" stroke-width="1.5" stroke-linecap="round" stroke-linejoin="bevel"/>
<path d="M16.4998 7.5752H11.8423C11.4445 7.5752 11.0629 7.41716 10.7816 7.13586C10.5003 6.85455 10.3423 6.47302 10.3423 6.0752V3.0752" stroke="white" stroke-width="1.5" stroke-linecap="round" stroke-linejoin="bevel"/>
</svg>
