<svg width="93" height="41" viewBox="0 0 93 41" fill="none" xmlns="http://www.w3.org/2000/svg">
<path d="M7.95057 0V3.9245H11.8751V7.849H15.7996V11.7735H19.7241V0.00269392H27.5704V27.4688H19.7241V23.5443H15.7969V19.6198H11.8724V15.6953H7.94787V27.4661H0.101562V0H7.95057Z" fill="white"/>
<path d="M58.9583 0V3.9245H39.3385V11.7708H58.9583V15.6953H39.3385V27.4661H31.4922V0H58.9583Z" fill="white"/>
<path d="M62.8184 3.9245V0H92.4624V3.9245H81.6646V27.4661H73.8183V3.9245H62.8184Z" fill="white"/>
<path d="M7.90768 31.4805V32.7823H9.20955V36.6853H6.60849V37.9872H7.91038V39.289H9.21225V40.5909H5.30931V39.289H4.00743V37.9872H2.70555V40.5882H0.104492V31.4805H7.90768ZM2.70286 36.6853H5.30392V35.3834H6.60579V32.7823H2.70286V36.6853Z" fill="white"/>
<path d="M19.6138 31.4805V32.7823H13.1098V35.3834H18.312V36.6853H13.1098V39.2863H19.6138V40.5882H10.5088V31.4805H19.6138Z" fill="white"/>
<path d="M22.2174 34.0815V32.7797H23.5193V31.4805H27.4222V32.7823H28.7241V34.0842H30.026V40.5882H27.4249V37.9872H23.522V40.5882H20.9209V34.0842H22.2174V34.0815ZM23.5166 36.6853H27.4195V34.0842H26.1176V32.7823H24.8157V34.0842H23.5139V36.6853H23.5166Z" fill="white"/>
<path d="M33.9233 31.4805V39.2863H40.4273V40.5882H31.3223V31.4805H33.9233Z" fill="white"/>
<path d="M44.3306 31.4805V35.3834H45.6324V34.0815H46.9343V35.3834H48.2362V31.4805H50.8372V40.5855H48.2362V39.2837H46.9343V37.9818H45.6324V39.2837H44.3306V40.5855H41.7295V31.4805H44.3306Z" fill="white"/>
<path d="M52.1367 39.2863V32.7823H53.4386V31.4805H59.9426V32.7823H61.2445V39.2863H59.9426V40.5882H53.4386V39.2863H52.1367ZM54.7378 39.2863H58.6407V32.7823H54.7378V39.2863Z" fill="white"/>
<path d="M70.3462 31.4805V32.7823H71.648V36.6853H69.047V37.9872H70.3489V39.289H71.6507V40.5909H67.7478V39.289H66.4459V37.9872H65.144V40.5882H62.543V31.4805H70.3462ZM65.144 36.6853H67.7451V35.3834H69.047V32.7823H65.144V36.6853Z" fill="white"/>
<path d="M75.5513 31.4805V39.2863H82.0552V40.5882H72.9502V31.4805H75.5513Z" fill="white"/>
<path d="M89.8614 31.4805V32.7823H91.1633V34.0842H92.4652V37.9872H91.1633V39.289H89.8614V40.5909H83.3574V31.4805H89.8614ZM85.9585 39.2863H88.5595V37.9845H89.8614V34.0815H88.5595V32.7797H85.9585V39.2863Z" fill="white"/>
</svg>
