<svg width="14" height="17" viewBox="0 0 14 17"  xmlns="http://www.w3.org/2000/svg">
<path fill-rule="evenodd" clip-rule="evenodd" d="M2.86634 10.5872C4.04835 10.1909 5.59862 10.0751 7.17037 10.0751C8.75195 10.0751 10.3029 10.1955 11.4836 10.597C12.0782 10.7993 12.6375 11.0919 13.0551 11.5296C13.4913 11.9867 13.7384 12.5678 13.7384 13.2489C13.7384 13.9316 13.4889 14.5127 13.0501 14.9682C12.6304 15.404 12.0691 15.6938 11.4741 15.8933C10.2923 16.2897 8.74221 16.4058 7.17037 16.4058C5.58888 16.4058 4.03772 16.2856 2.85682 15.8842C2.26215 15.682 1.70273 15.3894 1.285 14.9516C0.848734 14.4944 0.601562 13.9132 0.601562 13.232C0.601562 12.5491 0.851106 11.9679 1.29002 11.5123C1.70986 11.0765 2.27126 10.7867 2.86634 10.5872ZM2.44802 12.6278C2.29188 12.7899 2.2095 12.9735 2.2095 13.232C2.2095 13.4922 2.29215 13.6779 2.4483 13.8416C2.623 14.0247 2.91861 14.2068 3.37436 14.3618C4.29431 14.6745 5.62557 14.7978 7.17037 14.7978C8.70798 14.7978 10.0399 14.6784 10.9628 14.3689C11.4201 14.2155 11.7169 14.0346 11.892 13.8527C12.0482 13.6907 12.1305 13.5071 12.1305 13.2489C12.1305 12.9889 12.0479 12.8032 11.8918 12.6396C11.7171 12.4565 11.4216 12.2743 10.9659 12.1193C10.0462 11.8065 8.71509 11.683 7.17037 11.683C5.63268 11.683 4.30053 11.8023 3.37748 12.1117C2.92003 12.2651 2.62324 12.4459 2.44802 12.6278Z" />
<path fill-rule="evenodd" clip-rule="evenodd" d="M2.6712 4.49704C2.67193 2.01287 4.68649 0 7.17038 0C9.65495 0 11.6688 2.01383 11.6688 4.4984C11.6688 6.98275 9.65517 8.99756 7.17038 8.99756H7.14435L7.14162 8.99756C4.66497 8.98916 2.66356 6.97389 2.6712 4.49704ZM2.6712 4.49704C2.6712 4.49659 2.6712 4.49613 2.6712 4.49568L3.47517 4.4984H2.6712C2.6712 4.49795 2.6712 4.49749 2.6712 4.49704ZM7.17038 1.60794C5.57363 1.60794 4.27914 2.90209 4.27914 4.4984V4.50111C4.27377 6.09053 5.55771 7.38355 7.1458 7.38962H7.17038C8.7667 7.38962 10.0608 6.09514 10.0608 4.4984C10.0608 2.90187 8.76691 1.60794 7.17038 1.60794Z" />
</svg>
