<svg width="593" height="192" viewBox="0 0 593 192" fill="none" xmlns="http://www.w3.org/2000/svg">
<ellipse cx="117.737" cy="28.2198" rx="22.9183" ry="22.9268" stroke="url(#paint0_linear_251_2903)" stroke-width="5"/>
<ellipse cx="117.737" cy="165.78" rx="22.9183" ry="22.9268" stroke="url(#paint1_linear_251_2903)" stroke-width="5"/>
<ellipse cx="26.0642" cy="119.927" rx="22.9183" ry="22.9268" stroke="url(#paint2_linear_251_2903)" stroke-width="5"/>
<ellipse cx="163.574" cy="119.927" rx="22.9183" ry="22.9268" stroke="url(#paint3_linear_251_2903)" stroke-width="5"/>
<ellipse cx="223.161" cy="96.9991" rx="22.9183" ry="22.9268" stroke="url(#paint4_linear_251_2903)" stroke-width="5"/>
<ellipse cx="360.671" cy="96.9991" rx="22.9183" ry="22.9268" stroke="url(#paint5_linear_251_2903)" stroke-width="5"/>
<ellipse cx="291.916" cy="28.2198" rx="22.9183" ry="22.9268" stroke="url(#paint6_linear_251_2903)" stroke-width="5"/>
<ellipse cx="291.916" cy="165.78" rx="22.9183" ry="22.9268" stroke="url(#paint7_linear_251_2903)" stroke-width="5"/>
<path d="M26.0642 97V94.5V97ZM3.1459 119.927H5.6459H3.1459ZM26.0642 142.854V140.354V142.854ZM163.574 142.854V145.354V142.854ZM186.492 119.927H183.992H186.492ZM163.574 97V99.5V97ZM26.0642 94.5C12.0252 94.5 0.645904 105.885 0.645905 119.927H5.6459C5.6459 108.645 14.7884 99.5 26.0642 99.5L26.0642 94.5ZM0.645905 119.927C0.645905 133.969 12.0252 145.354 26.0642 145.354L26.0642 140.354C14.7884 140.354 5.64591 131.209 5.6459 119.927H0.645905ZM163.574 145.354C177.613 145.354 188.992 133.969 188.992 119.927H183.992C183.992 131.209 174.85 140.354 163.574 140.354V145.354ZM188.992 119.927C188.992 105.885 177.613 94.5 163.574 94.5V99.5C174.85 99.5 183.992 108.645 183.992 119.927H188.992ZM26.0642 145.354H163.574V140.354H26.0642V145.354ZM26.0642 99.5H163.574V94.5H26.0642V99.5Z" fill="url(#paint8_linear_251_2903)"/>
<path d="M94.8191 165.78L92.3191 165.78L94.8191 165.78ZM117.737 188.707L117.737 186.207L117.737 188.707ZM140.656 165.78L138.156 165.78L140.656 165.78ZM140.656 28.2192L143.156 28.2192L143.156 28.2192L140.656 28.2192ZM117.737 5.2924L117.737 7.7924L117.737 5.2924ZM94.8191 28.2192L97.3191 28.2192L94.8191 28.2192ZM92.3191 165.78C92.3191 179.822 103.698 191.207 117.737 191.207L117.737 186.207C106.462 186.207 97.3191 177.063 97.3191 165.78L92.3191 165.78ZM117.737 191.207C131.776 191.207 143.156 179.822 143.156 165.78L138.156 165.78C138.156 177.063 129.013 186.207 117.737 186.207L117.737 191.207ZM143.156 28.2192C143.156 14.1773 131.776 2.7924 117.737 2.7924L117.737 7.7924C129.013 7.7924 138.156 16.9369 138.156 28.2192L143.156 28.2192ZM117.737 2.7924C103.698 2.7924 92.3191 14.1773 92.3191 28.2192L97.3191 28.2192C97.3191 16.9369 106.462 7.7924 117.737 7.7924L117.737 2.7924ZM143.156 165.78L143.156 28.2192L138.156 28.2192L138.156 165.78L143.156 165.78ZM97.3191 165.78L97.3191 28.2192L92.3191 28.2192L92.3191 165.78L97.3191 165.78Z" fill="url(#paint9_linear_251_2903)"/>
<path d="M10.1843 103.546L8.41685 101.778L10.1843 103.546ZM10.1843 135.97L11.9517 134.201L10.1843 135.97ZM42.5956 135.97L40.8282 134.201L42.5956 135.97ZM133.774 44.7568L135.542 46.5249L135.542 46.5249L133.774 44.7568ZM133.774 12.3334L132.007 14.1015L133.774 12.3334ZM101.363 12.3334L103.13 14.1015L101.363 12.3334ZM8.41685 101.778C-1.50943 111.708 -1.50943 127.808 8.41685 137.738L11.9517 134.201C3.9777 126.224 3.9777 113.291 11.9517 105.314L8.41685 101.778ZM8.41685 137.738C18.3431 147.668 34.4368 147.668 44.3631 137.738L40.8282 134.201C32.8542 142.178 19.9257 142.178 11.9517 134.201L8.41685 137.738ZM135.542 46.5249C145.468 36.5949 145.468 20.4952 135.542 10.5653L132.007 14.1015C139.981 22.0784 139.981 35.0117 132.007 42.9887L135.542 46.5249ZM135.542 10.5653C125.616 0.635285 109.522 0.635307 99.5956 10.5653L103.13 14.1015C111.104 6.12448 124.033 6.12447 132.007 14.1015L135.542 10.5653ZM44.3631 137.738L135.542 46.5249L132.007 42.9887L40.8282 134.201L44.3631 137.738ZM11.9517 105.314L103.13 14.1015L99.5956 10.5653L8.41685 101.778L11.9517 105.314Z" fill="url(#paint10_linear_251_2903)"/>
<ellipse cx="521.099" cy="28.2198" rx="22.9183" ry="22.9268" stroke="url(#paint11_linear_251_2903)" stroke-width="5"/>
<ellipse cx="521.099" cy="165.78" rx="22.9183" ry="22.9268" stroke="url(#paint12_linear_251_2903)" stroke-width="5"/>
<ellipse cx="429.426" cy="119.927" rx="22.9183" ry="22.9268" stroke="url(#paint13_linear_251_2903)" stroke-width="5"/>
<ellipse cx="566.936" cy="119.927" rx="22.9183" ry="22.9268" stroke="url(#paint14_linear_251_2903)" stroke-width="5"/>
<path d="M429.426 97V94.5V97ZM406.508 119.927H409.008H406.508ZM429.426 142.854V140.354V142.854ZM566.936 142.854V145.354V142.854ZM589.854 119.927H587.354H589.854ZM566.936 97V99.5V97ZM429.426 94.5C415.387 94.5 404.008 105.885 404.008 119.927H409.008C409.008 108.645 418.15 99.5 429.426 99.5L429.426 94.5ZM404.008 119.927C404.008 133.969 415.387 145.354 429.426 145.354L429.426 140.354C418.15 140.354 409.008 131.209 409.008 119.927H404.008ZM566.936 145.354C580.975 145.354 592.354 133.969 592.354 119.927H587.354C587.354 131.209 578.212 140.354 566.936 140.354V145.354ZM592.354 119.927C592.354 105.885 580.975 94.5 566.936 94.5V99.5C578.212 99.5 587.354 108.645 587.354 119.927H592.354ZM429.426 145.354H566.936V140.354H429.426V145.354ZM429.426 99.5H566.936V94.5H429.426V99.5Z" fill="url(#paint15_linear_251_2903)"/>
<path d="M498.181 165.78L495.681 165.78L498.181 165.78ZM521.099 188.707L521.099 186.207L521.099 188.707ZM544.018 165.78L541.518 165.78L544.018 165.78ZM544.018 28.2192L546.518 28.2192L546.518 28.2192L544.018 28.2192ZM521.099 5.2924L521.099 7.7924L521.099 5.2924ZM498.181 28.2192L500.681 28.2192L498.181 28.2192ZM495.681 165.78C495.681 179.822 507.06 191.207 521.099 191.207L521.099 186.207C509.823 186.207 500.681 177.063 500.681 165.78L495.681 165.78ZM521.099 191.207C535.138 191.207 546.518 179.822 546.518 165.78L541.518 165.78C541.518 177.063 532.375 186.207 521.099 186.207L521.099 191.207ZM546.518 28.2192C546.518 14.1773 535.138 2.7924 521.099 2.7924L521.099 7.7924C532.375 7.7924 541.518 16.9369 541.518 28.2192L546.518 28.2192ZM521.099 2.7924C507.06 2.7924 495.681 14.1773 495.681 28.2192L500.681 28.2192C500.681 16.9369 509.823 7.7924 521.099 7.7924L521.099 2.7924ZM546.518 165.78L546.518 28.2192L541.518 28.2192L541.518 165.78L546.518 165.78ZM500.681 165.78L500.681 28.2192L495.681 28.2192L495.681 165.78L500.681 165.78Z" fill="url(#paint16_linear_251_2903)"/>
<path d="M413.546 103.546L411.779 101.778L413.546 103.546ZM413.546 135.97L415.314 134.201L413.546 135.97ZM445.957 135.97L444.19 134.201L445.957 135.97ZM537.136 44.7568L538.904 46.5249L538.904 46.5249L537.136 44.7568ZM537.136 12.3334L535.369 14.1015L537.136 12.3334ZM504.725 12.3334L506.492 14.1015L504.725 12.3334ZM411.779 101.778C401.852 111.708 401.852 127.808 411.779 137.738L415.314 134.201C407.34 126.224 407.34 113.291 415.314 105.314L411.779 101.778ZM411.779 137.738C421.705 147.668 437.799 147.668 447.725 137.738L444.19 134.201C436.216 142.178 423.288 142.178 415.314 134.201L411.779 137.738ZM538.904 46.5249C548.83 36.5949 548.83 20.4952 538.904 10.5653L535.369 14.1015C543.343 22.0784 543.343 35.0117 535.369 42.9887L538.904 46.5249ZM538.904 10.5653C528.977 0.635285 512.884 0.635307 502.957 10.5653L506.492 14.1015C514.466 6.12448 527.395 6.12447 535.369 14.1015L538.904 10.5653ZM447.725 137.738L538.904 46.5249L535.369 42.9887L444.19 134.201L447.725 137.738ZM415.314 105.314L506.492 14.1015L502.957 10.5653L411.779 101.778L415.314 105.314Z" fill="url(#paint17_linear_251_2903)"/>
<ellipse cx="291.916" cy="97.0003" rx="91.6731" ry="91.7073" stroke="url(#paint18_linear_251_2903)" stroke-width="5"/>
<ellipse cx="291.916" cy="97.0001" rx="45.8366" ry="45.8537" stroke="url(#paint19_linear_251_2903)" stroke-width="5"/>
<line x1="2" y1="2.79297" x2="589.854" y2="2.79301" stroke="url(#paint20_linear_251_2903)" stroke-width="5"/>
<line x1="2" y1="188.5" x2="589.854" y2="188.5" stroke="url(#paint21_linear_251_2903)" stroke-width="5"/>
<defs>
<linearGradient id="paint0_linear_251_2903" x1="97.9029" y1="-29.0973" x2="140.793" y2="-27.2193" gradientUnits="userSpaceOnUse">
<stop stop-color="#3461FF"/>
<stop offset="1" stop-color="#8454EB"/>
</linearGradient>
<linearGradient id="paint1_linear_251_2903" x1="97.9029" y1="108.463" x2="140.793" y2="110.341" gradientUnits="userSpaceOnUse">
<stop stop-color="#3461FF"/>
<stop offset="1" stop-color="#8454EB"/>
</linearGradient>
<linearGradient id="paint2_linear_251_2903" x1="6.22971" y1="62.6097" x2="49.1197" y2="64.4877" gradientUnits="userSpaceOnUse">
<stop stop-color="#3461FF"/>
<stop offset="1" stop-color="#8454EB"/>
</linearGradient>
<linearGradient id="paint3_linear_251_2903" x1="143.739" y1="62.6097" x2="186.629" y2="64.4877" gradientUnits="userSpaceOnUse">
<stop stop-color="#3461FF"/>
<stop offset="1" stop-color="#8454EB"/>
</linearGradient>
<linearGradient id="paint4_linear_251_2903" x1="203.327" y1="39.682" x2="246.217" y2="41.56" gradientUnits="userSpaceOnUse">
<stop stop-color="#3461FF"/>
<stop offset="1" stop-color="#8454EB"/>
</linearGradient>
<linearGradient id="paint5_linear_251_2903" x1="340.837" y1="39.682" x2="383.727" y2="41.56" gradientUnits="userSpaceOnUse">
<stop stop-color="#3461FF"/>
<stop offset="1" stop-color="#8454EB"/>
</linearGradient>
<linearGradient id="paint6_linear_251_2903" x1="272.082" y1="-29.0973" x2="314.972" y2="-27.2193" gradientUnits="userSpaceOnUse">
<stop stop-color="#3461FF"/>
<stop offset="1" stop-color="#8454EB"/>
</linearGradient>
<linearGradient id="paint7_linear_251_2903" x1="272.082" y1="108.463" x2="314.972" y2="110.341" gradientUnits="userSpaceOnUse">
<stop stop-color="#3461FF"/>
<stop offset="1" stop-color="#8454EB"/>
</linearGradient>
<linearGradient id="paint8_linear_251_2903" x1="15.4811" y1="62.6097" x2="182.254" y2="91.8189" gradientUnits="userSpaceOnUse">
<stop stop-color="#3461FF"/>
<stop offset="1" stop-color="#8454EB"/>
</linearGradient>
<linearGradient id="paint9_linear_251_2903" x1="60.4416" y1="176.367" x2="89.6821" y2="9.53926" gradientUnits="userSpaceOnUse">
<stop stop-color="#3461FF"/>
<stop offset="1" stop-color="#8454EB"/>
</linearGradient>
<linearGradient id="paint10_linear_251_2903" x1="-22.015" y1="87.1222" x2="109.568" y2="-6.76132" gradientUnits="userSpaceOnUse">
<stop stop-color="#3461FF"/>
<stop offset="1" stop-color="#8454EB"/>
</linearGradient>
<linearGradient id="paint11_linear_251_2903" x1="501.265" y1="-29.0973" x2="544.155" y2="-27.2193" gradientUnits="userSpaceOnUse">
<stop stop-color="#3461FF"/>
<stop offset="1" stop-color="#8454EB"/>
</linearGradient>
<linearGradient id="paint12_linear_251_2903" x1="501.265" y1="108.463" x2="544.155" y2="110.341" gradientUnits="userSpaceOnUse">
<stop stop-color="#3461FF"/>
<stop offset="1" stop-color="#8454EB"/>
</linearGradient>
<linearGradient id="paint13_linear_251_2903" x1="409.592" y1="62.6097" x2="452.482" y2="64.4877" gradientUnits="userSpaceOnUse">
<stop stop-color="#3461FF"/>
<stop offset="1" stop-color="#8454EB"/>
</linearGradient>
<linearGradient id="paint14_linear_251_2903" x1="547.101" y1="62.6097" x2="589.991" y2="64.4877" gradientUnits="userSpaceOnUse">
<stop stop-color="#3461FF"/>
<stop offset="1" stop-color="#8454EB"/>
</linearGradient>
<linearGradient id="paint15_linear_251_2903" x1="418.843" y1="62.6097" x2="585.616" y2="91.8189" gradientUnits="userSpaceOnUse">
<stop stop-color="#3461FF"/>
<stop offset="1" stop-color="#8454EB"/>
</linearGradient>
<linearGradient id="paint16_linear_251_2903" x1="463.803" y1="176.367" x2="493.044" y2="9.53926" gradientUnits="userSpaceOnUse">
<stop stop-color="#3461FF"/>
<stop offset="1" stop-color="#8454EB"/>
</linearGradient>
<linearGradient id="paint17_linear_251_2903" x1="381.347" y1="87.1222" x2="512.93" y2="-6.76132" gradientUnits="userSpaceOnUse">
<stop stop-color="#3461FF"/>
<stop offset="1" stop-color="#8454EB"/>
</linearGradient>
<linearGradient id="paint18_linear_251_2903" x1="212.578" y1="-132.268" x2="384.138" y2="-124.756" gradientUnits="userSpaceOnUse">
<stop stop-color="#3461FF"/>
<stop offset="1" stop-color="#8454EB"/>
</linearGradient>
<linearGradient id="paint19_linear_251_2903" x1="252.247" y1="-17.6341" x2="338.027" y2="-13.8781" gradientUnits="userSpaceOnUse">
<stop stop-color="#3461FF"/>
<stop offset="1" stop-color="#8454EB"/>
</linearGradient>
<linearGradient id="paint20_linear_251_2903" x1="41.5498" y1="4.54297" x2="42.3798" y2="25.9141" gradientUnits="userSpaceOnUse">
<stop stop-color="#3461FF"/>
<stop offset="1" stop-color="#8454EB"/>
</linearGradient>
<linearGradient id="paint21_linear_251_2903" x1="41.5498" y1="190.25" x2="42.3798" y2="211.621" gradientUnits="userSpaceOnUse">
<stop stop-color="#3461FF"/>
<stop offset="1" stop-color="#8454EB"/>
</linearGradient>
</defs>
</svg>
