<svg width="419" height="323" viewBox="0 0 419 323" fill="none" xmlns="http://www.w3.org/2000/svg">
<g clip-path="url(#clip0_253_3096)">
<path d="M36.8321 219.236C38.5879 219.66 40.9722 221.851 41.6606 223.849L45.1522 232.368C45.9404 234.003 45.7907 237.244 44.8529 238.798L30.9162 261.852C27.9333 266.798 28.5519 273.803 32.5623 278.345L44.3641 290.276C48.4743 293.97 55.727 294.637 60.4557 291.74L83.2413 277.639C84.6679 276.75 87.7306 276.438 89.8755 277.457L98.2854 280.97C99.9814 281.565 102.146 283.967 102.565 285.744L108.82 312.028C110.147 317.6 115.405 322.182 121.051 322.707C121.051 322.707 124.513 323.03 129.7 323.03C134.888 323.03 138.35 322.707 138.36 322.707C141.218 322.366 143.91 321.166 146.088 319.263C148.266 317.36 149.831 314.84 150.581 312.028L156.846 285.744C157.265 283.978 159.42 281.565 161.395 280.869L169.815 277.336C171.301 276.599 174.743 276.75 176.17 277.639L198.955 291.74C200.96 292.981 203.355 293.637 205.899 293.637C209.34 293.637 212.672 292.416 215.256 290.084L227.048 278.143C228.918 275.911 230.06 273.149 230.319 270.234C230.578 267.32 229.941 264.396 228.495 261.862L214.558 238.808C213.62 237.254 213.471 234.013 214.378 232.096L217.85 223.587C218.439 221.871 220.813 219.68 222.569 219.256L248.547 212.928C251.326 212.166 253.816 210.581 255.697 208.375C257.578 206.17 258.764 203.446 259.102 200.553C259.102 200.553 259.421 197.05 259.421 191.801C259.421 186.553 259.102 183.05 259.102 183.04C258.762 180.148 257.576 177.424 255.695 175.219C253.815 173.014 251.325 171.428 248.547 170.665L222.579 164.346C220.823 163.922 218.439 161.732 217.75 159.734L214.259 151.214C213.471 149.579 213.62 146.339 214.558 144.785L228.495 121.731C231.478 116.785 230.859 109.78 226.849 105.237L215.047 93.3066C210.927 89.6022 203.664 88.936 198.955 91.843L176.17 105.944C174.743 106.822 171.67 107.155 169.535 106.126L161.125 102.613C159.429 102.018 157.275 99.6152 156.856 97.8387L150.591 71.5546C149.838 68.7429 148.271 66.2233 146.091 64.3202C143.912 62.417 141.219 61.2173 138.36 60.8754C138.34 60.8855 134.878 60.5625 129.69 60.5625C124.503 60.5625 121.041 60.8855 121.031 60.8855C118.172 61.2287 115.48 62.4289 113.301 64.3319C111.122 66.2348 109.554 68.7536 108.8 71.5647L102.555 97.8286C102.136 99.6051 99.9714 102.018 97.9961 102.714L89.5762 106.247C88.0798 106.984 84.648 106.822 83.2214 105.944L60.4457 91.843C55.727 88.936 48.624 89.4407 44.1446 93.4984L32.3528 105.439C30.4834 107.672 29.3411 110.434 29.0822 113.348C28.8233 116.262 29.4603 119.187 30.9062 121.721L44.843 144.775C45.7807 146.329 45.9304 149.569 45.0225 151.487L41.5508 159.996C40.9622 161.712 38.5879 163.902 36.8321 164.326L10.8541 170.655C8.07512 171.417 5.58494 173.002 3.70394 175.207C1.82295 177.413 0.637205 180.137 0.299286 183.03C0.319238 183.03 0 186.533 0 191.781C0 197.03 0.319238 200.533 0.319238 200.543C0.658457 203.435 1.84466 206.159 3.72546 208.364C5.60625 210.569 8.09572 212.155 10.874 212.918L36.8321 219.236ZM9.97619 191.781C9.97619 187.158 10.2455 184.039 10.2555 183.938C10.4145 183.153 10.7692 182.422 11.286 181.814C11.8028 181.206 12.4646 180.742 13.2085 180.466L39.1865 174.137C44.2244 172.906 49.3023 168.243 50.8786 163.569L54.1109 155.625C56.3854 150.912 56.0662 143.987 53.3626 139.506L39.4259 116.462C38.7575 115.341 38.947 113.121 39.6055 112.364L50.9883 100.837C51.8961 100.019 54.2106 99.8171 55.2481 100.453L78.0338 114.554C82.3534 117.229 89.7558 117.411 93.6764 115.442L101.538 112.152C106.436 110.446 111.045 105.308 112.262 100.201L118.507 73.9266C118.778 73.1716 119.236 72.4995 119.836 71.9746C120.437 71.4497 121.161 71.0896 121.939 70.9288C122.039 70.9288 125.121 70.6562 129.69 70.6562C134.26 70.6562 137.342 70.9288 137.442 70.9389C138.218 71.0997 138.941 71.4586 139.542 71.9815C140.142 72.5044 140.601 73.174 140.874 73.9266L147.129 100.201C148.346 105.298 152.945 110.446 157.574 112.041L165.425 115.311C169.984 117.572 177.047 117.219 181.357 114.554L204.133 100.453C205.17 99.8171 207.624 100.15 208.183 100.635L219.576 112.152C220.434 113.131 220.623 115.341 219.955 116.462L206.018 139.516C203.315 143.987 202.995 150.922 205.14 155.343L208.393 163.297C210.079 168.253 215.156 172.916 220.204 174.147L246.172 180.466C246.919 180.74 247.583 181.203 248.102 181.811C248.62 182.419 248.976 183.151 249.135 183.938C249.135 184.039 249.405 187.158 249.405 191.781C249.405 196.404 249.135 199.523 249.125 199.624C248.966 200.41 248.612 201.141 248.095 201.748C247.578 202.356 246.916 202.82 246.172 203.096L220.194 209.425C215.156 210.657 210.079 215.32 208.502 219.993L205.27 227.937C202.996 232.651 203.315 239.575 206.018 244.057L219.955 267.101C220.623 268.221 220.434 270.442 219.775 271.199L208.393 282.726C207.671 283.271 206.788 283.552 205.889 283.523C205.281 283.543 204.679 283.401 204.143 283.109L181.357 269.009C177.047 266.344 169.645 266.152 165.714 268.12L157.853 271.411C152.955 273.117 148.346 278.264 147.139 283.362L140.884 309.636C140.613 310.391 140.155 311.063 139.554 311.588C138.954 312.113 138.23 312.473 137.452 312.634C137.342 312.634 134.26 312.906 129.69 312.906C125.121 312.906 122.039 312.634 121.939 312.624C121.163 312.463 120.44 312.104 119.839 311.581C119.239 311.058 118.78 310.389 118.507 309.636L112.252 283.352C111.035 278.254 106.426 273.117 101.807 271.522L93.9558 268.251C91.7232 267.201 89.2845 266.677 86.8228 266.717C83.5406 266.717 80.4181 267.535 78.0238 269.019L55.2481 283.12C54.2106 283.755 51.7465 283.412 51.1978 282.938L39.805 271.411C38.947 270.432 38.7575 268.221 39.4259 267.101L53.3626 244.047C56.0662 239.575 56.3854 232.641 54.2405 228.22L50.9883 220.266C49.3023 215.31 44.2244 210.646 39.1765 209.415L13.2085 203.096C12.4622 202.822 11.798 202.359 11.2792 201.751C10.7604 201.143 10.4045 200.411 10.2455 199.624C10.2455 199.523 9.97619 196.404 9.97619 191.781Z" fill="url(#paint0_linear_253_3096)"/>
<path d="M129.69 247.298C159.948 247.298 184.559 222.396 184.559 191.782C184.559 161.168 159.948 136.266 129.69 136.266C99.4327 136.266 74.8214 161.168 74.8214 191.782C74.8214 222.396 99.4327 247.298 129.69 247.298ZM129.69 146.36C154.441 146.36 174.583 166.739 174.583 191.782C174.583 216.825 154.441 237.204 129.69 237.204C104.94 237.204 84.7976 216.825 84.7976 191.782C84.7976 166.739 104.94 146.36 129.69 146.36ZM274.116 53.6389C273.446 54.3996 272.53 54.8935 271.532 55.0318L252.966 54.8501C250.675 54.9116 248.454 55.6601 246.583 57.0007C244.713 58.3412 243.279 60.2135 242.461 62.3801C242.461 62.3801 241.643 64.7319 240.745 68.3354C239.848 71.9388 239.468 74.4017 239.468 74.4017C238.77 78.954 241.274 83.9908 245.295 86.1206L261.665 94.8012C262.543 95.4739 263.135 96.459 263.322 97.5568L264.249 103.966C264.308 104.979 264.011 105.98 263.411 106.793L250.223 119.874C246.921 123.144 246.053 128.736 248.327 133.127L254.303 143.221C256.827 146.976 262.294 148.894 266.584 147.541L284.78 141.909C285.768 141.909 286.756 142.292 287.314 142.747L292.452 146.582C293.2 147.263 293.687 148.189 293.829 149.196L293.649 167.89C293.609 172.493 296.802 177.106 301.091 178.62C301.091 178.62 303.416 179.447 306.977 180.356C310.539 181.264 312.973 181.648 312.973 181.648C313.232 181.688 314.27 181.769 314.529 181.769C316.575 181.743 318.578 181.174 320.338 180.118C322.097 179.062 323.552 177.557 324.555 175.753L333.135 159.189C333.8 158.301 334.773 157.702 335.858 157.514L342.473 156.545C343.47 156.545 344.647 157.07 344.977 157.413L357.906 170.757C361.048 174.007 366.346 175.168 371.004 172.674L380.971 166.628C384.782 164.004 386.627 158.654 385.251 154.203L379.744 136.367C379.596 135.259 379.875 134.135 380.522 133.228L384.313 128.03C384.983 127.269 385.899 126.775 386.897 126.637L405.462 126.819C407.753 126.757 409.975 126.009 411.845 124.668C413.715 123.327 415.15 121.455 415.967 119.289C415.967 119.289 416.785 116.937 417.683 113.333C418.581 109.73 418.96 107.267 418.96 107.267C419.256 104.948 418.86 102.593 417.821 100.505C416.783 98.416 415.15 96.6897 413.134 95.5481L396.763 86.8675C395.886 86.1948 395.294 85.2097 395.107 84.1119L394.189 77.7225C394.13 76.71 394.427 75.7089 395.027 74.8963L408.216 61.8148C411.518 58.5444 412.386 52.9525 410.111 48.5617L404.135 38.468C401.611 34.7232 396.154 32.7852 391.855 34.1377L373.648 39.7701C372.737 39.7688 371.85 39.4755 371.114 38.9323L365.977 35.0966C365.229 34.4155 364.742 33.4902 364.6 32.4824L364.779 13.7887C364.741 11.4525 364.011 9.18159 362.685 7.26902C361.358 5.35646 359.495 3.89006 357.337 3.05908C357.337 3.05908 355.013 2.23139 351.451 1.32295C347.89 0.414516 345.455 0.0309531 345.455 0.0309531C344.938 -0.021114 344.419 -0.0581397 343.899 -0.0800781C341.854 -0.0542967 339.85 0.515046 338.091 1.57089C336.331 2.62673 334.877 4.13199 333.873 5.9358L325.294 22.4996C324.629 23.3875 323.655 23.9864 322.57 24.1752L315.956 25.1341C315.052 25.1143 314.177 24.811 313.452 24.266L300.523 10.9221C298.833 9.22091 296.646 8.11573 294.287 7.7703C291.928 7.42487 289.521 7.85757 287.424 9.0043L277.448 15.0404C273.637 17.6647 271.791 23.0144 273.168 27.4658L278.675 45.3014C278.822 46.41 278.544 47.5335 277.897 48.4406L274.116 53.6389ZM282.296 59.4125L285.718 54.7088C288.392 51.5091 289.429 46.2906 288.192 42.3036L282.695 24.478C282.645 24.1954 282.865 23.5595 282.815 23.5494L292.272 17.8161L293.4 17.9877L306.339 31.3317C308.633 33.6936 312.414 35.2279 315.966 35.2279C316.649 35.2388 317.331 35.1744 318.001 35.0361L323.737 34.1781C325.892 33.9137 327.955 33.1423 329.762 31.9259C331.569 30.7094 333.069 29.0817 334.142 27.173L342.712 10.6193C343.021 10.2692 343.448 10.0494 343.909 10.0036C344.019 10.0137 346.054 10.3569 349.027 11.1038C351.99 11.8608 353.945 12.5371 354.035 12.5775C354.344 12.7087 354.793 13.3648 354.813 13.6878L354.634 32.3814C354.594 36.5602 357.078 41.2538 360.29 43.3735L364.929 46.8357C368.012 49.4701 373.299 50.5805 377.19 49.3389L394.888 43.7672C395.307 43.7672 395.775 44.0296 395.716 43.8984L401.382 53.4673C401.492 53.7297 401.382 54.3959 401.212 54.6079L388.024 67.6995C385.081 70.6367 383.555 75.724 384.363 79.4991L385.201 85.303C385.56 89.4616 388.473 93.8928 392.134 95.8307L408.495 104.501C408.838 104.816 409.055 105.247 409.104 105.713C408.811 107.453 408.448 109.18 408.016 110.891C407.603 112.6 407.117 114.291 406.56 115.958C406.43 116.271 405.782 116.725 405.462 116.745L386.887 116.563C382.786 116.563 378.197 119.077 376.122 122.286L372.71 126.98C371.364 128.706 370.438 130.728 370.008 132.883C369.578 135.039 369.656 137.266 370.236 139.385L375.733 157.211C375.783 157.483 375.564 158.129 375.614 158.139L366.156 163.873L365.029 163.701L352.09 150.357C349.795 147.995 346.014 146.461 342.463 146.461C341.779 146.45 341.097 146.514 340.427 146.653L334.691 147.511C332.537 147.775 330.473 148.547 328.666 149.763C326.859 150.979 325.359 152.607 324.286 154.516L315.716 171.07C315.408 171.42 314.981 171.639 314.519 171.685C312.799 171.389 311.092 171.022 309.402 170.585C307.712 170.167 306.041 169.675 304.393 169.111C304.084 168.98 303.635 168.324 303.615 168.001L303.795 149.307C303.835 145.129 301.351 140.435 298.138 138.315L293.499 134.853C291.793 133.49 289.792 132.552 287.66 132.117C285.528 131.682 283.325 131.762 281.229 132.35L263.531 137.922C263.102 137.922 262.633 137.69 262.703 137.79L257.037 128.222C256.927 127.959 257.037 127.293 257.206 127.081L270.395 113.989C273.338 111.052 274.864 105.965 274.056 102.19L273.218 96.396C272.956 94.2149 272.193 92.1263 270.988 90.2979C269.784 88.4695 268.173 86.9523 266.284 85.8682L249.923 77.1977C249.581 76.8832 249.364 76.4521 249.315 75.9864C249.325 75.8754 249.664 73.8163 250.402 70.8083C251.151 67.8105 251.819 65.8321 251.859 65.7413C251.989 65.4284 252.637 64.9741 252.956 64.954L271.532 65.1356C275.632 65.1356 280.221 62.6223 282.296 59.4125Z" fill="url(#paint1_linear_253_3096)"/>
<path d="M329.214 121.125C345.715 121.125 359.143 107.539 359.143 90.8438C359.143 74.1487 345.715 60.5625 329.214 60.5625C312.714 60.5625 299.286 74.1487 299.286 90.8438C299.286 107.539 312.714 121.125 329.214 121.125ZM329.214 70.6562C340.218 70.6562 349.167 79.7103 349.167 90.8438C349.167 101.977 340.218 111.031 329.214 111.031C318.211 111.031 309.262 101.977 309.262 90.8438C309.262 79.7103 318.211 70.6562 329.214 70.6562Z" fill="url(#paint2_linear_253_3096)"/>
</g>
<defs>
<linearGradient id="paint0_linear_253_3096" x1="17.4534" y1="-136.288" x2="260.208" y2="-125.779" gradientUnits="userSpaceOnUse">
<stop stop-color="#3461FF"/>
<stop offset="1" stop-color="#8454EB"/>
</linearGradient>
<linearGradient id="paint1_linear_253_3096" x1="97.9809" y1="-185.613" x2="419.509" y2="-166.016" gradientUnits="userSpaceOnUse">
<stop stop-color="#3461FF"/>
<stop offset="1" stop-color="#8454EB"/>
</linearGradient>
<linearGradient id="paint2_linear_253_3096" x1="303.313" y1="15.1406" x2="359.325" y2="17.5654" gradientUnits="userSpaceOnUse">
<stop stop-color="#3461FF"/>
<stop offset="1" stop-color="#8454EB"/>
</linearGradient>
<clipPath id="clip0_253_3096">
<rect width="419" height="323" fill="white"/>
</clipPath>
</defs>
</svg>
